{
  "particles": {
    "number": {
      "value":3,
      "density": {
        "enable": true,
        "value_area": 1000
      }
    },
    "color": {
      "value": "#ffffff"
    },
    "shape": {
      "type": "image",
      "image": [
      {
        "src": "img/1.png",
        "width": 10,
        "height": 10
      },
      {
        "src": "img/2.png",
        "width": 10,
        "height": 10
      },
      {
        "src": "img/3.png",
        "width": 10,
        "height": 10
      },
      {
        "src": "img/4.png",
        "width": 10,
        "height": 10
      },
      {
        "src": "img/4.png",
        "width": 10,
        "height": 10
      },
      {
        "src": "img/6.png",
        "width": 10,
        "height": 10
      },
      {
        "src": "img/7.png",
        "width": 10,
        "height": 10
      },
      {
        "src": "img/8.png",
        "width": 10,
        "height": 10
      },
      {
        "src": "img/9.png",
        "width": 10,
        "height": 10
      },
      {
        "src": "img/10.png",
        "width": 10,
        "height": 10
      },
      {"src": "img/11.png",
        "width": 10,
        "height": 10
      },
      {
        "src": "img/12.png",
        "width": 10,
        "height": 10
      },
      {
        "src": "img/13.png",
        "width": 10,
        "height": 10
      },
      {
        "src": "img/14.png",
        "width": 10,
        "height": 10
      },
      {
        "src": "img/14.png",
        "width": 10,
        "height": 10
      },
      {
        "src": "img/16.png",
        "width": 10,
        "height": 10
      },
      {
        "src": "img/17.png",
        "width": 10,
        "height": 10
      },
      {
        "src": "img/18.png",
        "width": 10,
        "height": 10
      },
      {
        "src": "img/19.png",
        "width": 10,
        "height": 10
      },
      {
        "src": "img/20.png",
        "width": 10,
        "height": 10
      },
      {"src": "img/21.png",
        "width": 10,
        "height": 10
      },
      {
        "src": "img/22.png",
        "width": 10,
        "height": 10
      },
      {
        "src": "img/23.png",
        "width": 10,
        "height": 10
      },
      {
        "src": "img/24.png",
        "width": 10,
        "height": 10
      },
      {
        "src": "img/24.png",
        "width": 10,
        "height": 10
      },
      {
        "src": "img/26.png",
        "width": 10,
        "height": 10
      },
      {
        "src": "img/27.png",
        "width": 10,
        "height": 10
      },
      {
        "src": "img/28.png",
        "width": 10,
        "height": 10
      },
      {
        "src": "img/29.png",
        "width": 10,
        "height": 10
      },
      {
        "src": "img/30.png",
        "width": 10,
        "height": 10
      },
      {"src": "img/31.png",
        "width": 10,
        "height": 10
      },
      {
        "src": "img/32.png",
        "width": 10,
        "height": 10
      },
      {
        "src": "img/33.png",
        "width": 10,
        "height": 10
      },
      {
        "src": "img/34.png",
        "width": 10,
        "height": 10
      },
      {
        "src": "img/34.png",
        "width": 10,
        "height": 10
      },
      {
        "src": "img/36.png",
        "width": 10,
        "height": 10
      },
      {
        "src": "img/37.png",
        "width": 10,
        "height": 10
      },
      {
        "src": "img/38.png",
        "width": 10,
        "height": 10
      },
      {
        "src": "img/39.png",
        "width": 10,
        "height": 10
      }
      ]
    },
    "opacity": {
      "value": 0.9,
      "random": true,
      "anim": {
        "enable": false,
        "speed": 0.1,
        "opacity_min": 0.1,
        "sync": false
      }
    },
    "size": {
      "value": 30,
      "random": true,
      "anim": {
        "enable": true,
        "speed": 0.1,
        "size_min": 10,
        "sync": true
      }
    },
    "line_linked": {
      "enable": true,
      "distance": 900,
      "color": "#ffffff",
      "opacity": 0.5,
      "width": 0.2
    },
    "move": {
      "enable": true,
      "speed": 0.05,
      "direction": "top-right",
      "random": true,
      "straight": false,
      "out_mode": "destroy",
      "bounce": false,
      "attract": {
        "enable": true,
        "rotateX": 3000,
        "rotateY": 500000
      }
    }
  },
  "interactivity": {
    "detect_on": "window",
    "events": {
      "onhover": {
        "enable": true,
        "mode": "grab"
      },
      "onclick": {
        "enable": true,
        "mode": "push"
      },
      "resize": true
    },
    "modes": {
      "grab": {
        "distance": 600,
        "line_linked": {
          "opacity": 0.7
        }
      },
      "repulse": {
        "distance": 10,
        "duration": 40
      },
      "push": {
        "particles_nb": 1
      },
      "remove": {
        "particles_nb": 2
      }
    }
  },
  "retina_detect": true
}
